…
Look at the spread of GDP per capita across countries within the continents.

#Table
max_min_gdpPercap_countriesInCont <- gapminder %>%
  group_by(continent, year) %>%
  filter(gdpPercap==min(gdpPercap) | gdpPercap==max(gdpPercap)) %>%
  arrange(year, continent) %>%
  mutate(country, minmax=rank(gdpPercap)) %>%
  mutate(minmax = as.factor(minmax)) %>%
  select(-country, -pop, -lifeExp) # remove country column
max_min_gdpPercap_countriesInCont

## # A tibble: 120 x 4
## # Groups:   continent, year [60]
##    continent  year gdpPercap minmax
##    <fct>     <int>     <dbl> <fct> 
##  1 Africa     1952      299. 1     
##  2 Africa     1952     4725. 2     
##  3 Americas   1952     1398. 1     
##  4 Americas   1952    13990. 2     
##  5 Asia       1952   108382. 2     
##  6 Asia       1952      331  1     
##  7 Europe     1952      974. 1     
##  8 Europe     1952    14734. 2     
##  9 Oceania    1952    10040. 1     
## 10 Oceania    1952    10557. 2     
## # ... with 110 more rows

Here I show the minimum and maximum gdp per capita per continent by year.

#change data so that have cont/year/mingdp/maxgdp
max_min_gdpPercap_byCont <- max_min_gdpPercap_countriesInCont %>%
  spread(minmax, gdpPercap, sep = "_") #sep adds in previous column name
max_min_gdpPercap_byCont

## # A tibble: 60 x 4
## # Groups:   continent, year [60]
##    continent  year minmax_1 minmax_2
##    <fct>     <int>    <dbl>    <dbl>
##  1 Africa     1952     299.    4725.
##  2 Africa     1957     336.    5487.
##  3 Africa     1962     355.    6757.
##  4 Africa     1967     413.   18773.
##  5 Africa     1972     464.   21011.
##  6 Africa     1977     502.   21951.
##  7 Africa     1982     462.   17364.
##  8 Africa     1987     390.   11864.
##  9 Africa     1992     411.   13522.
## 10 Africa     1997     312.   14723.
## # ... with 50 more rows
…
